IDEALS-GSE R Workshop
…
We get some nice information here. We can see that R has actually counted the number of occurences of each city, state, and model, and seem to have provided the top most frequent of each of those. Well definitely check that. For our one numeric variable, the award amount, we get some basic descriptive statistics, such as min, max, mean, and a quartile breakdown. We can also see that there are 74 rows where there are NA values.

Lets look a bit more at those factor variables. At the same, well learn about the pipe operator, %>%.

data %>% 
  count(City)

## # A tibble: 424 x 2
##    City             n
##    <fct>        <int>
##  1 SAVOONGA         1
##  2 AKIACHAK         1
##  3 GAMBELL          1
##  4 WASILLA          2
##  5 AKIAK            1
##  6 TULUKSAK         1
##  7 MONTGOMERY       4
##  8 FORT DEPOSIT     1
##  9 ROCKFORD         1
## 10 HAYNEVILLE       2
## #  with 414 more rows

By looking at the number of rows, we can see now that there are 424 different cities that received grants. Lets order them to make sure we know which city received the most.

data %>%
  count(City) %>%
  arrange(desc(n))

## # A tibble: 424 x 2
##    City               n
##    <fct>          <int>
##  1 PHILADELPHIA      29
##  2 ST LOUIS          18
##  3 MIAMI             14
##  4 CLEVELAND         12
##  5 JACKSONVILLE      11
##  6 COLUMBUS          11
##  7 KANSAS CITY       11
##  8 MILWAUKEE         11
##  9 SAN BERNARDINO    10
## 10 SAN FRANCISCO     10
## #  with 414 more rows

Lets do the same thing with states and the model.

data %>%
  count(State) %>%
  arrange(desc(n))

## # A tibble: 50 x 2
##    State     n
##    <fct> <int>
##  1 CA       92
##  2 FL       71
##  3 PA       58
##  4 TX       48
##  5 OH       35
##  6 MO       32
##  7 MI       28
##  8 GA       26
##  9 NY       25
## 10 NC       24
## #  with 40 more rows
…
Before we move on, lets see if we can figure out whats going on with some of those low values.

data %>% 
  arrange(`2010/11/Award Amount`)

## # A tibble: 831 x 7
##    `School Name` City  State `District Name` `2010/11/Award 
##    <chr>         <fct> <fct> <chr>                      <dbl>
##  1 EDISON HS/FA PHIL PA    PHILADELPHIA C                1
##  2 PACIFIC HIGH  SAN  CA    SAN BERNARDINO                2
##  3 SAN GORGONIO SAN  CA    SAN BERNARDINO                2
##  4 BARTON ELEME SAN  CA    SAN BERNARDINO                2
##  5 SHANDIN HILL SAN  CA    SAN BERNARDINO                2
##  6 NORTH HIGH S DES  IA    DES MOINES IND                2
##  7 CROWNPOINT H CROW NM    GALLUP-MCKINLE                2
##  8 ERNIE PYLE M ALBU NM    ALBUQUERQUE PU                2
##  9 SOUTH PARK H BUFF NY    BUFFALO CITY S                2
## 10 ROOSEVELT HI YONK NY    YONKERS CITY S                2
## #  with 821 more rows, and 2 more variables: `Model Selected` <fct>,
## #   Location <chr>
…
## # A tibble: 4 x 3
## # Groups:   State [1]
##   State `Model Selected` mean_award
##   <fct> <fct>                 <dbl>
## 1 CO    Transformation      651243.
## 2 CO    Restart             619609 
## 3 CO    Turnaround          599881.
## 4 CO    Closure              26052.

Lets find out which type of model in which state on average got the largest award.

state_model_avgs %>%
  arrange(desc(mean_award))

## # A tibble: 98 x 3
## # Groups:   State [50]
##    State `Model Selected` mean_award
##    <fct> <fct>                 <dbl>
##  1 MN    Turnaround          818851.
##  2 CT    Restart             800000 
##  3 NC    Restart             730689 
##  4 AZ    Transformation      723803.
##  5 MD    Turnaround          701810.
##  6 PA    Restart             701497.
##  7 AK    Restart             697703 
##  8 VA    Restart             669661 
##  9 MA    Transformation      659791.
## 10 DE    Transformation      651608 
## #  with 88 more rows

What if instead of averages, just count the number of each type per state?

state_model_counts <- data %>%
  group_by(State, `Model Selected`) %>%
  count()

state_model_counts

## # A tibble: 98 x 3
## # Groups:   State, Model Selected [98]
##    State `Model Selected`     n
##    <fct> <fct>            <int>
##  1 AK    Transformation       6
##  2 AK    Restart              1
##  3 AL    Transformation      11
##  4 AR    Transformation       7
##  5 AZ    Transformation      12
##  6 AZ    Turnaround           7
##  7 CA    Transformation      56
##  8 CA    Restart              5
##  9 CA    Turnaround          29
## 10 CA    Closure              2
## #  with 88 more rows

With this data we could then look at distributions for particular models across states.

state_model_counts %>%
  filter(`Model Selected` == "Turnaround") %>%
  arrange(desc(n))

## # A tibble: 29 x 3
## # Groups:   State, Model Selected [29]
##    State `Model Selected`     n
##    <fct> <fct>            <int>
##  1 CA    Turnaround          29
##  2 FL    Turnaround          17
##  3 MO    Turnaround          14
##  4 MI    Turnaround           9
##  5 OH    Turnaround           8
##  6 AZ    Turnaround           7
##  7 CO    Turnaround           6
##  8 CT    Turnaround           6
##  9 KY    Turnaround           6
## 10 MD    Turnaround           6
## #  with 19 more rows
…
